{  
   "meta":{  
      "limit":20,
      "next":"?offset=20&limit=20&format=json",
      "offset":0,
      "previous":null,
      "total_count":7268
   },
   "objects":[  
      {  
         "application_count":0,
         "articles_count":0,
         "clinical_trials_count":0,
         "grant_count":0,
         "id_company":85,
         "market_ticker":"",
         "name":"Genzyme, a Sanofi Company",
         "name_suf":"",
         "patents_count":0,
         "people_count":0,
         "resource_uri":"",
         "share_price":0.0,
         "type":"private",
         "amount": 9000,
         "keywords": ["General"]
      },
      {  
         "application_count":0,
         "articles_count":0,
         "clinical_trials_count":0,
         "grant_count":0,
         "id_company":8001,
         "market_ticker":"BAZA480.SA",
         "name":"Odontoprev SA",
         "name_suf":"",
         "patents_count":0,
         "people_count":0,
         "resource_uri":"",
         "share_price":0.0,
         "type":"public"
      },
      {  
         "application_count":0,
         "articles_count":0,
         "clinical_trials_count":0,
         "grant_count":0,
         "id_company":8002,
         "market_ticker":"OS.ST",
         "name":"OraSolv AB",
         "name_suf":"",
         "patents_count":0,
         "people_count":0,
         "resource_uri":"",
         "share_price":0.0,
         "type":"public",
         "amount": 1000
      },
      {  
         "application_count":0,
         "articles_count":0,
         "clinical_trials_count":0,
         "grant_count":0,
         "id_company":8005,
         "market_ticker":"BAZA712.SA",
         "name":"Tempo Participacoes SA",
         "name_suf":"",
         "patents_count":0,
         "people_count":0,
         "resource_uri":"",
         "share_price":0.0,
         "type":"public",
         "amount": 5000,
         "keywords": ["Pharmaceutical"]
      },
      {  
         "application_count":0,
         "articles_count":0,
         "clinical_trials_count":0,
         "grant_count":0,
         "id_company":8009,
         "market_ticker":"UWQ.DE",
         "name":"WellCare Health Plans",
         "name_suf":"Inc",
         "patents_count":0,
         "people_count":0,
         "resource_uri":"",
         "share_price":0.0,
         "type":"public",
         "keywords": ["Pharmaceutical"]
      },
      {  
         "application_count":0,
         "articles_count":0,
         "clinical_trials_count":0,
         "grant_count":0,
         "id_company":8013,
         "market_ticker":"A41.DE",
         "name":"Addus HomeCare",
         "name_suf":"Corp",
         "patents_count":0,
         "people_count":0,
         "resource_uri":"",
         "share_price":0.0,
         "type":"public",
         "amount": 120,
         "status": "withheld",
         "keywords": ["General"]
      },
      {  
         "application_count":0,
         "articles_count":0,
         "clinical_trials_count":0,
         "grant_count":0,
         "id_company":8015,
         "market_ticker":"G5L.DE",
         "name":"Aevis Holding SA",
         "name_suf":"",
         "patents_count":0,
         "people_count":0,
         "resource_uri":"",
         "share_price":0.0,
         "type":"public",
         "status": "suspended",
         "amount": 100,
         "keywords": ["Medicine"]
      },
      {  
         "application_count":0,
         "articles_count":0,
         "clinical_trials_count":0,
         "grant_count":0,
         "id_company":8019,
         "market_ticker":"AWS.DE",
         "name":"American Caresource",
         "name_suf":"",
         "patents_count":0,
         "people_count":0,
         "resource_uri":"",
         "share_price":0.0,
         "type":"public",
         "phase": 2,
         "status": "suspended",
         "keywords": ["Medicine"]
      },
      {  
         "application_count":0,
         "articles_count":0,
         "clinical_trials_count":0,
         "grant_count":0,
         "id_company":8020,
         "market_ticker":"AZS.DE",
         "name":"American Shared Hospital",
         "name_suf":"",
         "patents_count":0,
         "people_count":0,
         "resource_uri":"",
         "share_price":0.0,
         "type":"public",
         "status": "suspended",
         "phase": 2
      }, 
      {  
         "application_count":0,
         "articles_count":0,
         "clinical_trials_count":0,
         "grant_count":0,
         "id_company":8022,
         "market_ticker":"APOLLOHOS.NS",
         "name":"Apollo Hospitals",
         "name_suf":"",
         "patents_count":0,
         "people_count":0,
         "resource_uri":"",
         "share_price":0.0,
         "type":"public",
         "amount": 200,
         "phase": 2,
         "status":"recruiting",
         "keywords": ["General"]
      },
      {
         "application_count":0,
         "articles_count":0,
         "clinical_trials_count":0,
         "grant_count":0,
         "id_company":8027,
         "market_ticker":"BZ7A.DE",
         "name":"Bumrungrad Hospital PLC",
         "name_suf":"",
         "patents_count":0,
         "people_count":0,
         "resource_uri":"",
         "share_price":0.0,
         "type":"public",
         "amount": 300,
         "phase": 4,
         "status": "recruiting",
         "keywords": ["Medicine"]
      },
      {  
         "application_count":0,
         "articles_count":0,
         "clinical_trials_count":0,
         "grant_count":0,
         "id_company":185,
         "market_ticker":"",
         "name":"Ichor Medical Systems Incorporated",
         "name_suf":"",
         "patents_count":0,
         "people_count":0,
         "resource_uri":"",
         "share_price":0.0,
         "type":"private",
         "amount": 200,
         "phase": 2,
         "status": "withheld",
         "keywords": ["Medicine"]
      },
      {  
         "application_count":60,
         "articles_count":0,
         "clinical_trials_count":0,
         "grant_count":0,
         "id_company":6378,
         "market_ticker":"MFY.DE",
         "name":"Mochida Pharmaceutical",
         "name_suf":"",
         "patents_count":146,
         "people_count":0,
         "resource_uri":"",
         "share_price":0.0,
         "type":"public",
         "phase": 3,
         "amount": 300,
         "status": "terminated",
         "keywords": ["Pharmaceutical", "Medicine", "General"]
      },
      {  
         "application_count":0,
         "articles_count":0,
         "clinical_trials_count":0,
         "grant_count":0,
         "id_company":6379,
         "market_ticker":"MOREPENLA.NS",
         "name":"Morepen Laboratories",
         "name_suf":"Ltd",
         "patents_count":2,
         "people_count":0,
         "resource_uri":"",
         "share_price":0.0,
         "type":"public",
         "phase": 3,
         "amount": 200,
         "status": "terminated",
         "keywords": ["General"]
      },
      {  
         "application_count":36,
         "articles_count":0,
         "clinical_trials_count":0,
         "grant_count":0,
         "id_company":6381,
         "market_ticker":"NATCO.BO",
         "name":"Natco Pharma",
         "name_suf":"Ltd",
         "patents_count":19,
         "people_count":0,
         "resource_uri":"",
         "share_price":0.0,
         "type":"public",
         "amount": 800,
         "keywords": ["Pharmaceutical"]
      },
      {  
         "application_count":0,
         "articles_count":0,
         "clinical_trials_count":0,
         "grant_count":0,
         "id_company":6426,
         "market_ticker":"SHASUNCHE.NS",
         "name":"Shasun Pharmaceuticals",
         "name_suf":"Ltd",
         "patents_count":0,
         "people_count":0,
         "resource_uri":"",
         "share_price":0.0,
         "type":"public",
         "amount": 700,
         "status": "recruiting"
      },
      {  
         "application_count":0,
         "articles_count":0,
         "clinical_trials_count":0,
         "grant_count":0,
         "id_company":6438,
         "market_ticker":"TRAB",
         "name":"TheraBiogen",
         "name_suf":"",
         "patents_count":0,
         "people_count":0,
         "resource_uri":"",
         "share_price":0.0,
         "type":"public"
      },
      {  
         "application_count":0,
         "articles_count":0,
         "clinical_trials_count":0,
         "grant_count":0,
         "id_company":6439,
         "market_ticker":"TWWI",
         "name":"Thrive World Wide",
         "name_suf":"Inc",
         "patents_count":0,
         "people_count":0,
         "resource_uri":"",
         "share_price":0.0,
         "type":"public",
         "phase": 2,
         "amount": 100,
         "status": "recruiting",
         "keywords": ["Pharmaceutical"]
      },
      {  
         "application_count":0,
         "articles_count":0,
         "clinical_trials_count":0,
         "grant_count":0,
         "id_company":6445,
         "market_ticker":"TTKHE.BO",
         "name":"TTK Healthcare",
         "name_suf":"Ltd",
         "patents_count":0,
         "people_count":0,
         "resource_uri":"",
         "share_price":0.0,
         "type":"public",
         "phase": 1,
         "amount": 600,
         "status": "completed",
         "keywords": ["Medicine"]
      },
      {  
         "application_count":0,
         "articles_count":0,
         "clinical_trials_count":0,
         "grant_count":0,
         "id_company":6449,
         "market_ticker":"UNJ.DE",
         "name":"United Laboratories Intl",
         "name_suf":"",
         "patents_count":0,
         "people_count":0,
         "resource_uri":"",
         "share_price":0.0,
         "type":"public",
         "phase": 1,
         "amount": 200,
         "status": "completed",
         "keywords": ["Pharmaceutical"]
      }
   ]
}